<svg width="148" height="32" viewBox="0 0 148 32" fill="none" xmlns="http://www.w3.org/2000/svg">
<path d="M40.3636 10.4421C40.3636 10.256 40.5142 10.1052 40.7 10.1052H43.4602C43.6459 10.1052 43.7966 10.256 43.7966 10.4421V12.5127C43.7966 12.6987 43.6459 12.8495 43.4602 12.8495H40.7C40.5142 12.8495 40.3636 12.6987 40.3636 12.5127V10.4421ZM40.3636 14.512C40.3636 14.326 40.5142 14.1752 40.7 14.1752H43.4602C43.6459 14.1752 43.7966 14.326 43.7966 14.512V24.8621C43.7966 25.0482 43.6459 25.199 43.4602 25.199H40.7C40.5142 25.199 40.3636 25.0482 40.3636 24.8621V14.512Z" fill="#272933"/>
<path d="M46.929 10.4421C46.929 10.256 47.0796 10.1052 47.2653 10.1052H58.4666C58.6522 10.1052 58.8029 10.256 58.8029 10.4421V12.3499C58.8029 12.5359 58.6522 12.6867 58.4666 12.6867H50.9334C50.7475 12.6867 50.597 12.8376 50.597 13.0236V16.0478C50.597 16.2338 50.7475 16.3846 50.9334 16.3846H57.6906C57.8764 16.3846 58.0269 16.5354 58.0269 16.7214V18.6294C58.0269 18.8153 57.8764 18.9662 57.6906 18.9662H50.9334C50.7475 18.9662 50.597 19.1169 50.597 19.303V24.8621C50.597 25.0482 50.4463 25.199 50.2606 25.199H47.2653C47.0796 25.199 46.929 25.0482 46.929 24.8621V10.4421Z" fill="#272933"/>
<path d="M66.4762 25.4315C65.7709 25.4315 65.191 25.4082 64.7364 25.3617C64.2818 25.3152 63.7958 25.2221 63.2786 25.0827C62.7142 24.9275 62.2598 24.7104 61.9148 24.4314C61.57 24.1368 61.2799 23.726 61.0448 23.1989C60.8097 22.6872 60.6921 22.0669 60.6921 21.3383V18.0125C60.6921 17.2683 60.8097 16.6171 61.0448 16.0589C61.2799 15.5007 61.5857 15.0666 61.9619 14.7565C62.291 14.493 62.7221 14.2759 63.2551 14.1053C63.8037 13.9193 64.3366 13.803 64.854 13.7565C65.4495 13.7255 65.9904 13.71 66.4762 13.71C67.1974 13.71 67.7696 13.7332 68.1927 13.7797C68.6317 13.8107 69.1096 13.9038 69.627 14.0588C70.1912 14.2294 70.6458 14.4619 70.9908 14.7565C71.3512 15.0511 71.6569 15.4697 71.9077 16.0124C72.1428 16.5706 72.2604 17.2373 72.2604 18.0125V21.3383C72.2604 22.0359 72.1428 22.6483 71.9077 23.1755C71.6882 23.7026 71.3983 24.1136 71.0377 24.4081C70.7242 24.6717 70.2931 24.8888 69.7445 25.0594C69.2116 25.2144 68.6865 25.3152 68.1692 25.3617C67.6989 25.4082 67.1347 25.4315 66.4762 25.4315ZM66.4762 23.3151C67.119 23.3151 67.6049 23.2686 67.934 23.1755C68.2632 23.067 68.4906 22.9041 68.616 22.6872C68.757 22.4701 68.8276 22.1523 68.8276 21.7336V17.4776C68.8276 16.8575 68.6629 16.4233 68.3338 16.1752C68.0047 15.9271 67.3854 15.8031 66.4762 15.8031C65.5671 15.8031 64.948 15.9271 64.6188 16.1752C64.2895 16.4233 64.1251 16.8575 64.1251 17.4776V21.7336C64.1251 22.1523 64.1878 22.4701 64.3131 22.6872C64.4542 22.9041 64.6893 23.067 65.0184 23.1755C65.3477 23.2686 65.8336 23.3151 66.4762 23.3151Z" fill="#272933"/>
<path d="M74.8185 14.2794C74.8185 14.0934 74.969 13.9425 75.1548 13.9425H77.7504C77.9361 13.9425 78.0868 14.0933 78.0868 14.2794V15.9194C78.0868 15.5628 78.2356 15.2139 78.5335 14.8728C78.8313 14.5317 79.2075 14.2526 79.662 14.0356C80.1324 13.8185 80.5947 13.71 81.0493 13.71H81.9356C82.1213 13.71 82.272 13.8608 82.272 14.0468V16.1872C82.272 16.3733 82.1213 16.5241 81.9356 16.5241H81.0964C80.1245 16.5241 79.4035 16.6713 78.9331 16.9659C78.4786 17.2605 78.2512 17.7489 78.2512 18.4312V24.862C78.2512 25.0481 78.1007 25.1989 77.9149 25.1989H75.1548C74.969 25.1989 74.8185 25.0481 74.8185 24.862V14.2794Z" fill="#272933"/>
<path d="M89.7598 25.4315C85.7314 25.4315 83.717 24.2143 83.717 21.7801V17.7334C83.717 16.3225 84.1716 15.2992 85.0808 14.6635C86.0057 14.0278 87.4243 13.71 89.3367 13.71C91.1392 13.71 92.4559 14.0201 93.2868 14.6403C94.1332 15.2449 94.5564 16.276 94.5564 17.7334V20.1408C94.5564 20.327 94.4058 20.4777 94.22 20.4777H87.5099C87.324 20.4777 87.1735 20.6286 87.1735 20.8145V21.501C87.1735 22.1523 87.4086 22.6173 87.8789 22.8964C88.3491 23.1755 89.1956 23.3151 90.4182 23.3151C91.4356 23.3151 92.5678 23.1827 93.8145 22.9181C94.0261 22.8733 94.2272 23.0335 94.2272 23.2499V24.7163C94.2272 24.8757 94.1159 25.0134 93.9598 25.0439C92.6423 25.3023 91.2423 25.4315 89.7598 25.4315ZM90.9517 18.5474C91.1376 18.5474 91.2881 18.3967 91.2881 18.2106V16.9195C91.2881 16.5473 91.1313 16.2682 90.8179 16.0822C90.52 15.8961 90.0106 15.8031 89.2896 15.8031C88.4588 15.8031 87.9024 15.8961 87.6202 16.0822C87.3224 16.2837 87.1735 16.5628 87.1735 16.9195V18.2106C87.1735 18.3967 87.324 18.5474 87.5099 18.5474H90.9517Z" fill="#272933"/>
<path d="M102.612 25.4315C102.016 25.4315 101.546 25.416 101.201 25.385C100.856 25.3695 100.433 25.3307 99.9313 25.2686C99.4296 25.2066 99.0144 25.0982 98.6851 24.943C98.3716 24.7881 98.0425 24.5555 97.6975 24.2454C97.0549 23.7183 96.7335 22.8189 96.7335 21.5475V17.8032C96.7335 16.7799 96.9686 15.9271 97.439 15.2449C97.6114 14.9968 97.8622 14.772 98.1913 14.5705C98.5363 14.3534 98.881 14.1829 99.226 14.0588C99.508 13.9658 99.8842 13.8883 100.354 13.8263C100.825 13.7642 101.24 13.7255 101.601 13.71H102.847C103.668 13.71 104.73 13.8321 106.031 14.0764C106.189 14.1061 106.303 14.2449 106.303 14.406V15.9381C106.303 16.1546 106.102 16.3148 105.891 16.2684C104.476 15.9582 103.375 15.8031 102.588 15.8031C101.005 15.8031 100.214 16.3303 100.214 17.3846V21.5243C100.214 22.7182 101.083 23.3151 102.823 23.3151C103.596 23.3151 104.675 23.1731 106.06 22.8891C106.27 22.8462 106.468 23.0059 106.468 23.2204V24.7558C106.468 24.9181 106.352 25.0577 106.192 25.0857C104.875 25.3163 103.682 25.4315 102.612 25.4315Z" fill="#272933"/>
<path d="M111.509 25.4315C110.443 25.4315 109.644 25.3385 109.111 25.1524C108.594 24.9508 108.226 24.602 108.006 24.1058C107.802 23.5942 107.7 22.8344 107.7 21.8266C107.7 20.9274 107.81 20.2219 108.03 19.7102C108.265 19.1985 108.633 18.8342 109.135 18.6171C109.652 18.3846 110.357 18.2683 111.251 18.2683H114.77C114.956 18.2683 115.107 18.1174 115.107 17.9315V17.5008C115.107 17.0202 115.036 16.6636 114.895 16.431C114.77 16.1985 114.527 16.0357 114.166 15.9426C113.821 15.8496 113.296 15.8031 112.591 15.8031C111.692 15.8031 110.484 15.8827 108.967 16.042C108.768 16.063 108.594 15.9069 108.594 15.7063V14.2399C108.594 14.07 108.72 13.9265 108.888 13.9076C110.061 13.7758 111.412 13.71 112.944 13.71C114.401 13.71 115.522 13.8185 116.306 14.0356C117.105 14.2526 117.677 14.6247 118.022 15.1519C118.367 15.6791 118.54 16.4465 118.54 17.4544V24.862C118.54 25.0481 118.389 25.1989 118.203 25.1989H115.397C115.276 25.1989 115.177 25.1002 115.177 24.9786C115.177 24.7546 114.836 24.6443 114.665 24.7878C114.495 24.9296 114.305 25.0434 114.096 25.1291C113.641 25.3307 112.779 25.4315 111.509 25.4315ZM112.85 23.3151C113.539 23.3151 114.033 23.2918 114.331 23.2454C114.55 23.2144 114.699 23.1677 114.778 23.1057C114.872 23.0438 114.95 22.943 115.013 22.8034C115.076 22.695 115.107 22.5321 115.107 22.315V20.4657C115.107 20.2796 114.956 20.1289 114.77 20.1289H112.756C112.223 20.1289 111.846 20.1676 111.627 20.2451C111.408 20.3072 111.259 20.4467 111.18 20.6638C111.102 20.8654 111.063 21.2297 111.063 21.7568C111.063 22.2685 111.102 22.6251 111.18 22.8267C111.259 23.0283 111.408 23.16 111.627 23.2221C111.862 23.2841 112.27 23.3151 112.85 23.3151Z" fill="#272933"/>
<path d="M125.698 25.4315C124.544 25.4315 123.144 25.3277 121.5 25.1204C121.333 25.0992 121.207 24.9562 121.207 24.7871V23.2176C121.207 23.0118 121.39 22.8541 121.593 22.8838C123.566 23.1712 124.95 23.3151 125.745 23.3151C126.466 23.3151 126.999 23.2454 127.344 23.1057C127.689 22.9663 127.861 22.7104 127.861 22.3382V21.6406C127.861 21.2529 127.752 20.9816 127.532 20.8267C127.313 20.656 126.882 20.5708 126.239 20.5708H124.758C123.551 20.5708 122.618 20.3382 121.96 19.8731C121.301 19.3924 120.972 18.6948 120.972 17.7799V16.4078C120.972 15.431 121.442 14.741 122.383 14.3379C123.323 13.9193 124.742 13.71 126.639 13.71C127.35 13.71 128.594 13.7723 130.37 13.8971C130.546 13.9094 130.683 14.0562 130.683 14.2328V15.7188C130.683 15.9149 130.515 16.0694 130.32 16.0547C128.101 15.887 126.842 15.8031 126.545 15.8031C125.62 15.8031 125.016 15.8651 124.734 15.9892C124.483 16.1287 124.358 16.3845 124.358 16.7566V17.3612C124.358 17.5628 124.46 17.7412 124.664 17.8961C124.867 18.0358 125.165 18.1055 125.557 18.1055H127.062C129.852 18.1055 131.247 19.0048 131.247 20.8032V22.222C131.247 22.7647 131.145 23.2376 130.941 23.6406C130.738 24.0438 130.471 24.3616 130.142 24.5942C129.829 24.8113 129.421 24.9818 128.919 25.1059C128.434 25.2299 127.924 25.3152 127.391 25.3617C126.905 25.4082 126.341 25.4315 125.698 25.4315Z" fill="#272933"/>
<path d="M139.368 25.4317C138.788 25.4317 138.302 25.4084 137.91 25.3619C137.519 25.3154 137.127 25.2223 136.735 25.0829C136.296 24.9432 135.935 24.7494 135.653 24.5013C135.387 24.2534 135.167 23.9122 134.995 23.4781C134.807 23.0285 134.713 22.509 134.713 21.9199V16.3727C134.713 16.1867 134.562 16.0359 134.376 16.0359H132.745C132.559 16.0359 132.409 15.885 132.409 15.699V14.2796C132.409 14.0936 132.559 13.9427 132.745 13.9427H134.376C134.562 13.9427 134.713 13.7919 134.713 13.6059V11.0236C134.713 10.8376 134.863 10.6868 135.049 10.6868H137.809C137.995 10.6868 138.146 10.8376 138.146 11.0236V13.6059C138.146 13.7919 138.296 13.9427 138.482 13.9427H140.936C141.122 13.9427 141.273 14.0935 141.273 14.2796V15.699C141.273 15.885 141.122 16.0359 140.936 16.0359H138.482C138.296 16.0359 138.146 16.1867 138.146 16.3727V21.3385C138.146 21.8812 138.193 22.292 138.287 22.571C138.381 22.8346 138.561 23.0285 138.827 23.1524C139.094 23.261 139.501 23.3153 140.05 23.3153C140.219 23.3153 140.5 23.2922 140.893 23.2462C141.094 23.2226 141.273 23.3791 141.273 23.5824V25.0121C141.273 25.1844 141.143 25.3293 140.971 25.3454C140.361 25.4029 139.827 25.4317 139.368 25.4317Z" fill="#272933"/>
<mask id="mask0_599_552" style="mask-type:luminance" maskUnits="userSpaceOnUse" x="3" y="10" width="33" height="16">
<path d="M35.2181 10.1052H3.35413V25.2631H35.2181V10.1052Z" fill="white"/>
</mask>
<g mask="url(#mask0_599_552)">
<path d="M8.5042 25.2631C8.6893 25.2631 8.84074 25.1529 8.84074 25.0013C8.9417 22.2591 10.6076 18.3732 15.5718 18.3732C25.3317 18.3732 27.2332 13.2195 27.3511 10.3946C27.3511 10.2292 27.1827 10.1052 26.9977 10.1052H22.6225C22.4375 10.1052 22.3027 10.2155 22.2859 10.367C22.185 13.1092 20.3845 16.9952 15.5549 16.9952C5.81179 16.9952 3.91028 22.1489 3.79248 24.9737C3.79248 25.1253 3.94393 25.2631 4.14586 25.2631H8.5042Z" fill="#F07048"/>
<path d="M16.0906 25.2631C16.2756 25.2631 16.4103 25.1529 16.4103 25.0013C16.5112 22.2591 18.1773 18.3732 23.1413 18.3732C32.9181 18.3732 34.8029 13.2057 34.9206 10.3808C34.9206 10.2292 34.7692 10.1052 34.5841 10.1052H30.192C30.007 10.1052 29.8723 10.2155 29.8723 10.367C29.7714 13.1092 27.9708 16.9952 23.1413 16.9952C13.3645 16.9952 11.4799 22.1626 11.3621 24.9875C11.3621 25.1391 11.5135 25.2631 11.6986 25.2631H16.0906Z" fill="#F07048"/>
</g>
</svg>
